{
	"name": "Social",
	"version": "1.2.2",
	"author": [
		"Brent Copeland",
		"Alexia E. Smith",
		"Noah Manneschmidt",
		"Tim Aldridge",
		"Hydra Wiki Platform Team",
		"Hydra Wiki Platform Team"
	],
	"descriptionmsg": "social_description",
	"license-name": "GPL-2.0-or-later",
	"type": "parserhook",
	"requires": {
		"MediaWiki": ">= 1.29.0"
	},
	"APIModules": {
		"social": "SocialAPI"
	},
	"MessagesDirs": {
		"Social": [
			"i18n"
		]
	},
	"AutoloadClasses": {
		"SocialHooks": "Social.hooks.php",
		"SocialAPI": "Social.api.php",
		"socialPrompt": "classes/socialPrompt.php"
	},
	"ResourceModules": {
		"ext.social.styles": {
			"styles": [
				"css/social.css"
			],
			"position": "top"
		},
		"ext.social.scripts": {
			"scripts": [
				"js/social.js"
			],
			"position": "top"
		}
	},
	"ResourceFileModulePaths": {
		"localBasePath": "",
		"remoteExtPath": "Social"
	},
	"Hooks": {
		"ParserFirstCallInit": "SocialHooks::onParserFirstCallInit",
		"LoadExtensionSchemaUpdates": "SocialHooks::onLoadExtensionSchemaUpdates",
		"BeforePageDisplay": "SocialHooks::onBeforePageDisplay",
		"GetPreferences": "SocialHooks::onGetPreferences",
		"SkinBuildSidebar": "SocialHooks::onSkinBuildSidebar",
		"SkinTemplateNavigation": "SocialHooks::onSkinTemplateNavigation",
		"PageContentSaveComplete": "SocialHooks::onPageContentSaveComplete",
		"ArticleViewHeader": "SocialHooks::onArticleViewHeader",
		"AddNewAccount": "SocialHooks::onAddNewAccount"
	},
	"config": {
		"SocialSettings": {
			"value": {
				"sub_reddit": "",
				"hash_tags": "",
				"twitter_via": "",
				"prompt_edit_interval": 0,
				"prompt_cookie_time": 3600,
				"sidebar_enabled": true,
				"navigation_enabled": true,
				"prompts_enabled": true,
				"profile_urls": {
					"twitter": "https://twitter.com/Example",
					"facebook": "https://www.facebook.com/Example",
					"twitch": "https://www.twitch.tv/Example"
				},
				"share_messages_after_create_account": {
					"default": "I just joined Gamepedia.com to contribute to <wikiname>! <url>",
					"twitter": "I just joined #Gamepedia to contribute to <wikiname>!"
				},
				"share_messages_after_edit": {
					"default": "I just made a contribution to <wikiname> on Gamepedia.com! Check it out!",
					"tumblr": "I just made come contributions to <a href=\"<url>\" target=\"_blank\"><wikiname></a> on Gamepedia.com, check it out!"
				},
				"share_messages": {
					"default": "Check out <title> on <wikiname> via @CurseGamepedia: <url>",
					"tumblr": "Check out <title> on <wikiname> via <a href=\"https://twitter.com/CurseGamepedia\" target=\"_blank\">@CurseGamepedia</a>: <url>",
					"twitter": "Check out <title> on <wikiname>"
				}
			},
			"path": false,
			"descriptionmsg": "social-config-socialsettings",
			"public": false
		}
	},
	"manifest_version": 2
}